…
:::
:::

::: {.cell}

```{.r .cell-code}
gen_con |>
  left_join(tmk, by = join_by(Participant == primary.location))
```

::: {.cell-output .cell-output-stdout}

```
# A tibble: 521 × 20
   Participant Signatory_Status Signature_Date Ratification_Status
   <chr>                  <dbl> <chr>                        <dbl>
 1 Afghanistan                0 N/A                              1
 2 Afghanistan                0 N/A                              1
 3 Afghanistan                0 N/A                              1
 4 Afghanistan                0 N/A                              1
 5 Afghanistan                0 N/A                              1
 6 Afghanistan                0 N/A                              1
 7 Afghanistan                0 N/A                              1
 8 Afghanistan                0 N/A                              1
 9 Afghanistan                0 N/A                              1
10 Afghanistan                0 N/A                              1
# ℹ 511 more rows
# ℹ 16 more variables: Ratification_Type <chr>, Ratification_Year <chr>,
#   In_Effect_IX_Reservation <chr>,
#   `Historical Reservation Made to article IX no longer in effect` <chr>,
#   `Reservation withdrawn year` <chr>,
#   `Reservation Made at Same Time as Ratification and or confirmed upon succession` <chr>,
#   `Successor State Entry` <chr>, `State System Membership Year` <chr>, …
```
…
